ICD-11 Mortality and Morbidity Simple Table Outputs — icd11_simple_table_mms • codigo
…
    Source

    https://icdcdn.who.int/static/releasefiles/2024-01/SimpleTabulation-ICD-11-MMS-en.zip

    Examples

icd11_simple_table_mms
#> # A tibble: 36,044 × 18
#>    `Foundation URI`            `Linearization URI` Code  BlockId Title ClassKind
#>    <chr>                       <chr>               <chr> <chr>   <chr> <chr>    
#>  1 http://id.who.int/icd/enti… http://id.who.int/… NA    NA      Cert… chapter  
#>  2 http://id.who.int/icd/enti… http://id.who.int/… NA    BlockL… - Ga… block    
#>  3 http://id.who.int/icd/enti… http://id.who.int/… NA    BlockL… - - … block    
#>  4 http://id.who.int/icd/enti… http://id.who.int/… 1A00  NA      - - … category 
#>  5 http://id.who.int/icd/enti… http://id.who.int/… 1A01  NA      - - … category 
#>  6 http://id.who.int/icd/enti… http://id.who.int/… 1A02  NA      - - … category 
#>  7 http://id.who.int/icd/enti… http://id.who.int/… 1A03  NA      - - … category 
#>  8 http://id.who.int/icd/enti… http://id.who.int/… 1A03… NA      - - … category 
#>  9 http://id.who.int/icd/enti… http://id.who.int/… 1A03… NA      - - … category 
#> 10 http://id.who.int/icd/enti… http://id.who.int/… 1A03… NA      - - … category 
#> # ℹ 36,034 more rows
#> # ℹ 12 more variables: DepthInKind <chr>, IsResidual <chr>, ChapterNo <chr>,
#> #   BrowserLink <dbl>, isLeaf <chr>, `Primary tabulation` <chr>,
#> #   Grouping1 <chr>, Grouping2 <chr>, Grouping3 <chr>, Grouping4 <chr>,
#> #   Grouping5 <chr>, Version <chr>
…
