Utility functions for retrieving ICD parameters and definitions — icd_get_releases • codigo
…
#> 
#> $`ICD-11 - Release 2021-05`
#> [1] "ar" "en" "es" "zh"
#> 
#> $`ICD-11 - Release 2020-09`
#> [1] "ar" "en" "es"
#> 
#> $`ICD-11 - Release 2019-04`
#> [1] "en"
#> 
#> $`ICD-11 - Release 2018`
#> [1] "en"
#> 
icd_get_entities()
#> # A tibble: 36,044 × 5
#>    entity_foundation entity_mms code   title                               class
#>    <chr>             <chr>      <chr>  <chr>                               <chr>
#>  1 1435254666        1435254666 NA     Certain infectious or parasitic di… chap…
#>  2 588616678         588616678  NA     - Gastroenteritis or colitis of in… block
#>  3 135352227         135352227  NA     - - Bacterial intestinal infections block
#>  4 257068234         257068234  1A00   - - - Cholera                       cate…
#>  5 416025325         416025325  1A01   - - - Intestinal infection due to … cate…
#>  6 2080365623        2080365623 1A02   - - - Intestinal infections due to… cate…
#>  7 344162786         344162786  1A03   - - - Intestinal infections due to… cate…
#>  8 2099226249        2099226249 1A03.0 - - - - Enteropathogenic Escherich… cate…
#>  9 408185629         408185629  1A03.1 - - - - Enterotoxigenic Escherichi… cate…
#> 10 1828273122        1828273122 1A03.2 - - - - Enteroinvasive Escherichia… cate…
#> # ℹ 36,034 more rows
…
